541	Iffwil -> 540	Iffwil
566	Krattigen -> 556	Krattigen
2116	La Folliaz -> 2114	La Folliaz
4093	Birrhard -> 4082	Birrhard
4132	Birrwil -> 4093	Birrwil
4501	Kradolf-Schönenberg -> 4506	Kradolf-Schönenberg

